3. Manajemen Data R | Environmental Data Modeling
…
# konversi mtcars menjadi tibble
iris_tbl <- as_tibble(iris)

# print
iris_tbl

## # A tibble: 150 x 5
##    Sepal.Length Sepal.Width Petal.Length Petal.Width Species
##           <dbl>       <dbl>        <dbl>       <dbl> <fct>  
##  1          5.1         3.5          1.4         0.2 setosa 
##  2          4.9         3            1.4         0.2 setosa 
##  3          4.7         3.2          1.3         0.2 setosa 
##  4          4.6         3.1          1.5         0.2 setosa 
##  5          5           3.6          1.4         0.2 setosa 
##  6          5.4         3.9          1.7         0.4 setosa 
##  7          4.6         3.4          1.4         0.3 setosa 
##  8          5           3.4          1.5         0.2 setosa 
##  9          4.4         2.9          1.4         0.2 setosa 
## 10          4.9         3.1          1.5         0.1 setosa 
## # ... with 140 more rows
…
## # A tibble: 2 x 3
##   x         y z    
##   <chr> <dbl> <lgl>
## 1 a       2.1 FALSE
## 2 b       5.5 TRUE

Tibbles dirancang agar kita tidak secara sengaja menampilkan data yang sangat banyak saat melakukan perintah print(). Tetapi terkadang kita membutuhkan lebih banyak output daripada tampilan default. Ada beberapa opsi yang dapat membantu.

Pertama, kita dapat secara eksplisit melakukan print data frame dan mengontrol jumlah baris (n) dan lebar tampilan. width = Inf akan menampilkan semua kolom. Berikut adalah contoh penerapannya

print(iris_tbl, n=15, width=Inf)

## # A tibble: 150 x 5
##    Sepal.Length Sepal.Width Petal.Length Petal.Width Species
##           <dbl>       <dbl>        <dbl>       <dbl> <fct>  
##  1          5.1         3.5          1.4         0.2 setosa 
##  2          4.9         3            1.4         0.2 setosa 
##  3          4.7         3.2          1.3         0.2 setosa 
##  4          4.6         3.1          1.5         0.2 setosa 
##  5          5           3.6          1.4         0.2 setosa 
##  6          5.4         3.9          1.7         0.4 setosa 
##  7          4.6         3.4          1.4         0.3 setosa 
##  8          5           3.4          1.5         0.2 setosa 
##  9          4.4         2.9          1.4         0.2 setosa 
## 10          4.9         3.1          1.5         0.1 setosa 
## 11          5.4         3.7          1.5         0.2 setosa 
## 12          4.8         3.4          1.6         0.2 setosa 
## 13          4.8         3            1.4         0.1 setosa 
## 14          4.3         3            1.1         0.1 setosa 
## 15          5.8         4            1.2         0.2 setosa 
## # ... with 135 more rows
…
options(tibble.width = Inf): menampilkan seluruh kolom tanpa mempedulikan lebar tampilan layar.

Cara terakhir untuk menampilkan seluruh observasi adalh dengan fungsi view(). Berikut adalah contoh penerapannya pada data iris_tbl:

view(iris_tbl)

Subsetting

Sejauh ini semua alat yang kita pelajari telah bekerja dengan data frame yang lengkap. Jika kita ingin mengeluarkan variabel tunggal, kita memerlukan beberapa alat baru, dollar sign ($) dan [[. [[dapat mengekstraksi berdasarkan nama atau posisi; $ hanya mengekstraksi berdasarkan nama. Berikut adalah contoh penerapannya:

# print tibble
iris_tbl

## # A tibble: 150 x 5
##    Sepal.Length Sepal.Width Petal.Length Petal.Width Species
##           <dbl>       <dbl>        <dbl>       <dbl> <fct>  
##  1          5.1         3.5          1.4         0.2 setosa 
##  2          4.9         3            1.4         0.2 setosa 
##  3          4.7         3.2          1.3         0.2 setosa 
##  4          4.6         3.1          1.5         0.2 setosa 
##  5          5           3.6          1.4         0.2 setosa 
##  6          5.4         3.9          1.7         0.4 setosa 
##  7          4.6         3.4          1.4         0.3 setosa 
##  8          5           3.4          1.5         0.2 setosa 
##  9          4.4         2.9          1.4         0.2 setosa 
## 10          4.9         3.1          1.5         0.1 setosa 
## # ... with 140 more rows
…
